Subscription Level,create,default,flowchart,login,shapes,download
free,0,0,10,0,0,0
professional,1,0,0,0,1,1
free,0,0,2,0,0,0
professional,2,0,0,0,0,0
professional,0,6,1,0,0,0
professional,1,18.25,15.5,0,0,3.5
free,2,26,5,0,0,3
professional,1,0,0,1,0,0
free,3,0,1,0,0,1
professional,2,0,0,0,0,0
professional,0,0,1.833333333,1,3,3
professional,0,0,1,1,0,0
professional,1,1,10,0,0,0
free,0,0,4,1,0,2
professional,0,1,0,0,0,0
free,0,0,0,0,0,0
professional,1,0,1,0,0,7
professional,3,1,19,0,0,2
professional,1,1,5,0,0,3
professional,1.5,1,7,2,2,2
free,0,0,1,0,0,0
professional,0,2,0,0,0,0
free,2,0,0,0,0,0
professional,0,0,0,0,0,0
free,2,0,10.33333333,1.5,0,0
professional,1,1,1,1,0,9.5
professional,1.444444444,3.25,12.01785714,0,6,1.8
professional,0,4,6,1,0,3.333333333
professional,0,4.5,6.666666667,0,0,0
professional,1,2,2,2,0,0
free,0,0,0,1,0,1
professional,1,1,6.428571429,1,0,1
professional,0,0,11,0,0,0
professional,0,0,5.5,1,0,0
free,2,0,1,0,0,1
professional,3,1,0,0,0,0
free,1,5.5,0,0,2,0
professional,0,6,0,0,2,2
free,0,0,0,0,0,0
professional,2,0,1,0,0,1
free,0,0,0,1,0,0
professional,0,0,0,0,0,0
free,0,0,9,0,0,0
professional,0,0,0,0,0,4
free,0,0,0,0,0,0
professional,1.2,2,7,0,0,0
professional,0,0,0,1,0,2
free,0,0,0,0,0,0
professional,1,0,1,0,0,2
professional,0,0,0,0,0,0
professional,0,0,2,0,0,0
free,1,1,1,0,0,0
professional,1,17.66666667,3.5,0,0,0
free,2,0,10,1,0,3
professional,1.5,3.857142857,2.888888889,0,2,1
free,0,0,2,0,0,0
free,0,0,1,0,0,0
professional,2,12,16,0,0,0
free,2,26,4,0,0,0
free,0,9,1,0,1,0
professional,0,0,0,0,4,0
free,0,1.333333333,0,0,0,0
free,1,2,7,0,0,0
professional,0,1,0,1,0,1.25
professional,1,2,0,1,0,3
free,0,0,1,0,0,7.5
professional,0,7,11.66666667,0,1,2
free,3,2,11,0,0,1.5
professional,3,1.333333333,4.684210526,1,0,0
professional,0,2,1,1,0,0
professional,2,0,1,0,0,0
professional,0,0,14,1,0,0
professional,0,0,0,1,0,0
professional,0,0,0,2,0,0
free,1,6,5,0,0,1
professional,0,0,1,0,1,0
free,0,0,1.333333333,0,14,0
professional,1.25,1.5,2.25,1.166666667,8,2.5
professional,0,7,1,2,0,2
free,3,0,0,0,0,1.5
free,0,10,0,0,0,6
professional,0,0,0,0,0,0
free,0,0,6,0,0,0
free,0,0,1.666666667,0,0,0
free,0,3,3,0,0,0
professional,0,0,0,0,0,0
professional,1,0,1.25,0,0,0
professional,2,1.75,2.444444444,0,0,1.5
professional,0,0,0,0,0,0
free,2,0,0,1,0,0
free,0,0,0,0,0,0
free,1.5,0,1,0,1,1.5
professional,0,0,1,0,0,0
professional,0,7,0,0,1,0
professional,0,0,0,0,0,0
free,1,0,6,0,4,1
free,0,0,3,0,0,0
professional,0,2,2,1,0,1
professional,1.25,1.333333333,2,0,0,0
free,1,0,4,0,0,2
professional,0,0,0,0,0,0
free,1,1,5,0,0,1
professional,0,0,4,1,0,4
professional,5.333333333,22.66666667,34.66666667,1,0,9
professional,2,0,1,0,0,0
professional,2.25,14.75,0,1,0,0
free,0,0,1,0,0,0
professional,1,8,7,0,0,0
professional,0,0,0,0,0,0
professional,4,0,0,1,0,0
free,1,0,9,0,0,0
professional,0,0,4,0,0,2
free,0,0,18,0,0,2
professional,0,0,0,0,0,0
professional,2,0,0,1,0,0
professional,1,2,1,1,4.6,1.5
free,0,0,0,0,0,0
free,0,0,29,1,0,2
professional,0,0,0,0,10,0
free,0,0,0,1,0,0
professional,1,1,6.2,0,0,1
free,0,3,3,1,14,5
professional,1,3,10.75,0,0,4
free,2,1,1,0,0,1.333333333
professional,0,0,40,3,0,0
free,0,0,0,1,0,0
professional,0,0,0,1,0,0
professional,0,1,11,0,1,2
professional,1,0,0,0,0,12.33333333
professional,3.5,1,0,1,0,0
free,0,0,2,0,0,0
professional,2,0,0,0,0,0
professional,0,5,5,1,0,0
professional,0,2,0,1,0,3
professional,0,0,2,0,0,0
professional,0,0,3,0,0,2
free,1,0,0,0,0,0
professional,2,1,0,0,0,0
professional,1,1,2.909090909,1,0,4
professional,2,15,16,2,3,1
free,1,0,1,0,0,1
free,0,0,3,0,0,0
free,2,0,0,0,0,0
professional,0,0,0,0,0,1
professional,0,1,5,0,0,0
professional,2.5,4,2.347826087,0,0,1.666666667
professional,4,0,0,0,0,0
free,0,2.75,1.8,0,0,0
professional,0,3,1,1,0,0
professional,0,0,2,0,0,0
professional,4,5,0,1.142857143,0,7.75
professional,0,0,0,0,0,0
professional,0,0,5,0,0,1
professional,0,1,0,1,0,1.2
free,1,0,3,1,0,0
free,1,1,6.333333333,0,0,3
free,1,0,0,0,0,0
free,0,0,0,0,0,0
free,1,0,0,1,0,0
professional,0,0,0,0,0,3
free,2,0,0,0,0,0
professional,0,1,3,1,2,2
professional,0,0,0,0,0,3
professional,1,1,4.5,0,1,0
free,0,0,0,0,0,0
professional,0,0,4.666666667,0,0,3
free,0,2,2,0,0,0
professional,0,2,11,0,0,1.5
free,3,5.5,12,0,0,4.5
free,0,0,2,1,0,2
professional,0,1,1,0,0,0
professional,0,0,0,0,0,2
professional,0,0,17,0,0,0
professional,0,0,1,0,0,0
professional,0,1.5,3.5,0,1.5,0
professional,0,1,0,1,0,0
free,0,0,0,0,0,0
professional,2,8.857142857,1.36,0,0,3
professional,1,3,8,1,0,0
professional,0,43,0,0,0,2
professional,1.2,3,4.238095238,1.285714286,0,2.333333333
free,1,0,0,1,0,0
professional,0,1,9,0,0,1
professional,0,0,0,0,0,0
professional,2,10.75,2.285714286,1,2,4.6
professional,0,12,0,0,0,3
free,0,0,0,0,0,1
free,0,0,0,0,0,0
free,2,0,0,0,0,0
professional,3.5,11.16666667,2.083333333,1,0,1
free,0,0,0,0,0,0
free,0,0,15,0,0,3
free,0,2,0,0,0,0
free,1,0,0,1,0,0
professional,0,0,0,0,0,2
professional,0,1.5,2.5,0,10,0
professional,1,1,5.333333333,0,0,2
free,0,0,0,1,0,4.333333333
free,0,0,14,1,0,1
professional,1,0,3.8,0,2.5,10
free,2,0,7,0,1,0
professional,1,0,3,0,0,0
professional,2.5,1.25,11,1.166666667,0,1.666666667
free,0,0,4,0,0,0
free,1.5,2.833333333,11,1,0,0
professional,0,2,2,0,0,0
free,0,0,0,1,0,0
professional,0,0,0,0,0,2
professional,1,5,0,0,0,0
professional,0,0,2,0,8,0
professional,0,0,0,0,0,0
professional,0,0,0,0,0,0
free,0,4.166666667,5.15,0,4,3.75
professional,1,2,2.25,0,0,1.75
professional,0,0,0,0,0,0
free,1.5,0,1,0,0,3.5
professional,0,0,1,0,0,2
free,1,8,3,0,5,0
free,1,0,6,1,0,0
professional,1.333333333,5,3.55,0,1.666666667,0
professional,3,1,1,1,0,0
professional,0,0,61,0,0,1
professional,0,4.5,1,0,0,0
free,3,8.666666667,9,0,2,0
free,0,0,2,0,12,1
free,0,0,1,0,0,0
professional,0,0,0,0,1,2
free,0,0,0,0,0,0
professional,0,0,0,0,0,0
professional,5.5,1,0,1,0,1
free,2,0,0,0,0,0
professional,2,1,10,2,0,1
free,0,2.7,1.92,0,1,0
professional,0,0,1,0,0,0
professional,0,0,0,0,0,2
free,2,0,0,1,0,10
professional,0,1,0,0,0,0
professional,0,0,2,0,0,0
professional,0,0,0,1,0,2
professional,0,0,0,0,0,2
free,0,0,0,0,0,0
professional,0,0,0,0,0,0
professional,0,0,1,0,0,0
professional,0,0,4,0,1,0
professional,0,0,0,1,0,0
professional,0,0,0,0,1,0
professional,1,0,0,0,0,0
professional,0,0,0,0,0,0
free,3,31,39,0,6,6
professional,0,0,0,0,0,0
professional,1,1.4,1.2,1,0,2.1
professional,2,5,0,1,0,0
free,0,0,0,0,0,0
professional,0,0,0,0,0,0
free,2,7,0,0,0,3
professional,3,2.5,1,1,0,3
free,0,0,0,0,0,0
professional,0,8.5,0,0,0,0
professional,0,0,0,0,0,3
free,0,0,7,1,1,1
free,0,0,16,0,0,0
professional,0,0,0,0,0,0
free,0,0,0,0,0,0
professional,2,1,0,0,0,1.5
free,0,0,1.75,0,0,0
free,0,0,8,0,0,0
professional,0,2,1,0,0,7
free,0,5,2,1.25,0,1.666666667
professional,1,3,6,1,0,0
free,0,0,30,0,0,2
free,1,2,5,0,2,1.5
professional,1,2.333333333,2.333333333,0,0,0
professional,0,0,0,0,0,0
free,0,0,1,0,0,0
free,0,1,0,0,0,0
professional,1.428571429,1,1,1,1,0
professional,0,0,2.666666667,0,0,0
free,0,0,0,0,0,0
free,0,0,5,0,0,2
free,0,6.571428571,5.4,0,0,1
professional,0,2.25,5.571428571,0,0,1
free,0,0,1,0,0,2
free,0,0,0,2,0,0
free,0,0,0,0,0,0
free,1.6,4.666666667,4.111111111,0,5,2.666666667
professional,0,2,21,0,0,2
professional,0,0,0,0,0,0
professional,4,9,2.25,0,0,4.333333333
free,1,2,1.75,0,1,3.666666667
free,1,5,3.714285714,0,6,1
professional,0,10,0,0,0,0
free,0,0,0,0,0,0
free,0,2,8,0,0,0
professional,4,1,0,0,0,0
professional,0,0,0,0,0,0
professional,0,42,5,0,4,0
professional,0,0,0,0,0,0
professional,0,0,0,0,0,0
professional,1,1,4.666666667,1.5,0,1
free,1,1,12,0,2,0
professional,0,0,0,0,0,0
professional,0,0,0,0,1,0
professional,1,7,4,0,1,1
free,1,1.333333333,0,0,0,0
professional,1.666666667,1,0,0,0,0
free,0,1,0,0,0,0
professional,0,0,0,0,0,0
free,0,0,0,1,0,2
professional,0,0,3,0,6,0
free,0,0,0,1,0,0
free,3,1,0,0,0,3
free,0,0,0,0,0,0
professional,0,0,0,0,0,0
free,0,0,1,1,0,1
professional,1,0,2,0,0,0
free,0,0,7,0,0,0
free,2,2,4,1.5,0,0
professional,0,0,3,0,0,0
free,0,0,0,1,0,0
free,0,0,0,1,0,0
professional,0,0,3,0,1,0
professional,1,0,0,1,0,0
professional,0,0,5,1,10,0
free,4,0,24,1,6,1
professional,0,0,0,0,0,1
professional,2,0,1.666666667,0,0,0
professional,0,0,0,0,0,0
free,0,0,6,0,0,0
free,0,0,2,0,0,0
free,1,0,1,0,0,1.5
professional,0,6,0,1,4,1.5
professional,0,1,9.5,1,0,2.666666667
professional,0,7,0,0,4,1
professional,0,0,3,0,1.5,0
professional,0,0,0,0,0,4
professional,0,0,1,0,0,0
free,0,0,0,0,0,0
professional,1,2.75,0,0,0,3
free,0,0,0,0,0,0
professional,0,4,5,0,0,3
professional,5,0,4,0,2,0
professional,0,0,0,1,0,0
free,0,2,2,0,0,0
free,0,0,0,0,0,0
professional,0,1,15,0,0,0
free,1.5,2,2.4,0,2,5
professional,0,0,2,0,0,2
professional,0,0,0,0,0,0
free,1,0,14,1,1,1
professional,0,1,1,1,0,1.5
professional,1,0,13,0,0,1
professional,0,1,4,0,25,1
free,0,0,5,0,0,1
free,1,0,0,0,0,0
free,1,4,0,0,0,4
free,1,0,0,0,0,4
free,2.5,2.75,2.25,1,1,2.5
professional,0,0,1.6,0,1,0
free,3,0,0,0,0,2
free,1,0,0,0,0,0
free,0,3,0,0,0,1
free,1,0,1.166666667,1,0,1.666666667
professional,2,0,2,0,0,2
free,2,2,2,0,0,1
free,3,13,10,1,0,2
professional,1,0,1,0,6,0
professional,1.5,9,5.5,1,0,0
professional,0,1,14,0,0,0
free,0,4,0,0,0,0
professional,0,0,0,0,0,2
professional,0,2.5,0,0,0,6
professional,0,10,0,0,0,0
free,1,2,8,0,3,0
professional,0,0,2,0,0,0
professional,0,0,1,0,0,0
free,6,2,11,0,0,0
professional,0,0,3.125,1,0,3
free,2,0,1,0,0,0
professional,1.666666667,1,3.928571429,1,0,1.714285714
professional,2.5,2.666666667,4.5,1,0,1
free,0,1,2,0,0,0
professional,0,0,0,0,0,2
professional,0,0,0,0,0,0
professional,2,2,19,1.166666667,0,1
professional,0,0,0,2,0,0
free,3,0,7,0,0,2
free,1,2,5.5,1,0,2
free,0,0,4.666666667,0,0,0
professional,6,0,0,1,0,0
professional,1.5,1,4.4,1,0,3
professional,2,1,8,0,0,0
professional,0,0,0,0,0,0
professional,0,0,0,0,0,0
professional,3,5,1,0,0,0
free,1,11,0,0,0,2
free,4,0,0,0,0,0
professional,1,2.666666667,3.888888889,0,0,0
professional,2,0,24,3,0,3
free,2,4.142857143,2,0,4,1.75
free,2,0,0,0,0,0
professional,0,3,0,0,0,2
professional,0,0,0,0,0,1
free,2,3,8,0,1,4
professional,1.333333333,0,2,0,0,0
professional,2,2,3,0,0,0
free,2,0,0,0,1,0
professional,0,1,3.5,0,4,0
free,0,0,0,0,7,0
professional,1,6,3.222222222,1.5,17,0
free,0,0,0,1,0,3.5
free,2,1,6,0,0,1.5
professional,1,3,2,0,0,0
free,0,0,0,0,0,1
free,0,0,1.142857143,0,0,0
professional,2,0,1,0,0,0
free,0,0,0,0,0,0
free,1,0,8,0,0,5
free,1,5,3,0,0,0
free,0,1,5,0,0,0
free,0,0,1,0,0,0
professional,1,3,11.4,0,0,0
professional,4,24.2,0,1,0,8.25
professional,1.333333333,6.5,0,0,0,0
free,0,0,2,0,0,0
professional,1.428571429,10,31,0,0,2
professional,1.25,4.76,3.647058824,0,2.666666667,0
free,0,0,3,0,0,1
free,0,0,21,0,2.5,1
free,0,0,0,0,0,0
free,0,0,0,1,0,2
free,0,0,0,0,1,0
professional,1,0,0,0,0,0
free,1,0,1.222222222,1,0,0
professional,0,5,2,0,0,0
professional,2,0,0,0,0,0
free,0,0,0,0,0,1
free,0,0,0,1,0,0
professional,2,1,2,0,0,0
free,0,0,0,0,0,1
free,0,0,0,0,0,0
free,0,0,0,1,0,0
professional,2.272727273,1.5,1.5,1,0,1.8
professional,1,33.25,14,0,0,2
professional,1,0,2.4,0,0,1
free,0,0,0,1,0,0
free,0,0,0,1,0,0
professional,0,0,0,0,0,0
professional,0,16,0,0,2,0
professional,0,2,3,0,0,2
free,1,0,6.125,0,1,9.875
professional,0,0,0,0,0,0
professional,0,0,0,0,0,1
professional,0,0,3,0,0,4
professional,0,0,0,0,0,0
professional,1,1,3,1,0,1.75
free,0,0,0,0,0,0
professional,0,0,0,0,0,0
professional,3,5,10,0,0,2
free,0,2.4,2.5,0,2,0
professional,2,0,0,0,0,0
professional,2,1,0,0,0,0
free,2,1,1,0,0,1
professional,0,1,6,0,1,0
professional,0,7,0,0,0,2
professional,1.333333333,3,8,1,0,1
free,0,0,0,1,0,0
professional,0,1,0,0,0,0
professional,5,9,0,2,0,0
professional,0,0,0,0,0,1
professional,1,1,1,0,0,0
professional,1,0,15,0,0,0
professional,0,0,0,0,0,2
professional,0,0,0,0,0,0
professional,1,0,9,1,0,0
free,1.333333333,6,2,0,0,2
free,0,1,0,0,0,0
free,8,3,35,1,0,3
free,1,0,0,1,0,0
free,0,0,0,0,0,0
free,1.6,4.333333333,5.555555556,0,1,2.333333333
free,0,0,1,0,0,0
professional,10,21,22,0,6,12
free,1,0,4,0,0,0
professional,0,4,3,0,0,0
professional,0,4,8,0,5,1
free,15,1,11,2,0,0
professional,1,2,1,1,0,1.833333333
free,0,0,0,0,0,0
free,0,0,0,0,0,0
professional,0,1,13,1,0,0
professional,0,0,14,0,0,4
professional,6,5.5,5.5,1,0,2.5
professional,0,0,0,1,0,0
professional,1,3,8,1,0,1
professional,0,0,1,0,0,0
free,0,0,4,0,0,0
free,0,0,0,0,0,0
professional,3,3,7.5,1.333333333,0,6.333333333
free,2,3,9.5,0,0,0
professional,0,0,4,0,0,0
free,2,5,0,1,0,0
professional,1,4.285714286,1,0,0,0
professional,2,0,0,1,0,0
free,0,0,0,1,0,0
professional,0,0,3,0,1,0
professional,1,16,17,1,0,0
professional,0,5,2.8,0,0,10
free,0,6,6,0,0,0
professional,0,2,12,0,0,0
free,1,6,5,0,0,1
free,0,0,2,0,6,0
professional,0,0,0,0,0,2
free,1,0,0,0,0,0
professional,8,1,6.5,0,0,0
free,2,2,0,0,0,0
professional,1,2,4,0,0,0
professional,8,20,6,1,0,0
free,0,0,0,1,0,0
free,2,0,3,0,0,0
professional,0,0,0,1,0,0
professional,1,1,2.5,0,1,3.5
professional,0,0,15,0,0,0
professional,1,0,13,0,6,1
free,0,0,0,0,0,0
professional,2,0,0,0,0,3
free,0,0,2.5,0,0,0
free,0,0,0,0,0,0
free,1,0,1,1,0,0
free,0,0,0,0,0,0
professional,0,0,2,0,0,0
professional,0,0,0,1,0,0
professional,0,0,0,0,0,3
professional,0,0,11,0,0,0
professional,1.25,8.5,2,1,0,9.5
professional,0,0,4,0,0,0
professional,1,1,4.6,1,0,0
professional,1,2.882352941,2.25,1,1,0
professional,1,0,0,1,0,0
professional,0,0,0,0,0,1
free,0,0,0,1,0,0
free,0,0,4,0,0,0
professional,0,0,0,0,0,1
professional,0,0,0,1,0,0
free,0,0,0,0,0,0
professional,1,0,1,0,0,2
professional,2,2.666666667,4.666666667,1,0,1.875
free,0,0,0,0,0,1
professional,1,13,0,0,0,1
professional,1,0,1.75,0,0,0
professional,0,0,0,0,0,0
free,1,2,3.75,1.333333333,0,2.5
free,0,0,1,1,0,2
professional,0,21,23,0,0,0
free,0,0,0,0,0,0
professional,0,2,2,0,0,1.5
professional,0,9,0,0,0,0
free,1,11,1,0,1,1
professional,19,6,7,0,6,1
professional,0,0,2,0,0,0
professional,1,3.5625,2.130434783,0,0,2
professional,2,4.5,4,1,0,5
professional,0,0,0,0,0,0
professional,0,1,0,0,0,0
professional,1,6,1.75,1,3,0
free,0,0,0,0,0,0
professional,1,7.5,0,0,2,14.33333333
free,0,0,3,0,0,0
free,0,0,0,0,0,0
professional,0,6,6,1,1,1
professional,0,1,0,0,0,1
professional,2,1.333333333,2.5,1,0,2.5
professional,0,1,0,0,0,0
professional,0,0,0,0,0,2
free,0,0,1,0,0,0
professional,2.333333333,1,2,1,1,0
free,1,7,2,2.5,0,5
professional,1.818181818,2.181818182,1.818181818,1.2,1,1
free,0,0,1,1,0,4
professional,2,0,5.5,1,0,2
free,0,5,3,0,0,9
professional,0,0,0,0,0,0
professional,0,0,0,0,0,3
professional,0,0,8,1,21,0
professional,3,1,3,1.666666667,0,2
professional,2,0,14,0,0,3
professional,0,0,0,0,0,0
professional,0,0,0,0,0,0
professional,0,0,1,0,0,0
free,2,0,0,0,0,0
professional,4,0,10,2,0,3
professional,1,13,11.83333333,1,7,3
free,0,0,0,1.409090909,0,0
free,0,0,0,1,0,0
professional,1,0,0,1,0,0
free,0,0,0,0,2,2
professional,1,0,0,1,3,3
free,0,0,0,1.5,0,4
professional,8.5,2,45,1,0,7
professional,5,1,1,1,1,0
professional,2,0,0,0,0,0
free,0,0,0,0,0,0
free,0,0,1,0,1,0
professional,1.5,1,3,0,0,1
professional,0,0,6.25,0,0,0
professional,1,0,3,1,0,0
professional,1,1.25,1.666666667,1,0,2
professional,2,1,4.5,0,0,6
professional,0,0,0,0,0,0
free,0,0,0,0,0,0
professional,2,1,1,0,0,0
free,0,0,0,1,0,0
professional,1,6,0,0,0,0
professional,0,0,0,0,0,4
free,1.5,0,0,0,0,0
professional,1.166666667,2.176470588,3.05,1,2,4.333333333
professional,0,0,0,1,0,2
free,1,1,17,0,2,0
free,0,0,12,0,0,0
professional,0,0,0,0,0,1
professional,2,0,0,0,0,1
professional,0,0,0,0,2,0
free,0,0,0,1,0,0
professional,0,0,0,0,0,0
professional,1.333333333,0,28,0,2,1.5
professional,0,0,0,0,0,0
free,0,10.5,25,0,10,0
free,0,0,4,0,0,0
free,2,0,1,0,0,0
professional,1,1.5,4,1,0,7.666666667
free,0,1,2.076923077,0,1,0
professional,1,0,0,0,0,0
professional,0,1,0,0,0,0
free,2,0,0,0,0,0
free,0,0,0,0,0,0
professional,0,0,0,0,0,0
professional,0,0,1.666666667,0,0,0
professional,0,1,15,0,1,0
professional,1,0,0,1,0,0
professional,0,1,10.5,1,0,3
free,2,0,0,0,0,0
free,0,0,0,0,0,0
free,1.5,2,1.75,2.333333333,0,0
professional,4,2,20,1,0,1
free,0,3,1,1,0,2
professional,0,0,0,0,0,0
free,0,0,0,0,0,3
free,1.833333333,1.5,19,0,0,0
professional,0,0,1,0,0,0
professional,0,0,1,0,0,0
free,6,1,1,0,0,0
professional,0,5,1,0,0,0
free,0,2,4,0,0,0
free,4,1,13,1,0,4
free,0,0,0,0,0,0
free,1,3.428571429,1.75,0,0,0
professional,0,0,0,0,0,1
professional,1.25,2.916666667,2.4,0,1.5,4.6
free,0,0,0,0,0,2
professional,0,6,1,0,0,0
professional,0,0,1,0,0,0
professional,0,0,8.5,0,2,0
free,2,28,1,0,0,4
professional,0,0,0,0,0,0
professional,2.5,0,2.888888889,0,0,0
professional,1,5,3,0,1,4.333333333
free,0,0,0,0,0,0
professional,0,4,0,1,0,4
professional,2,0,1,0,0,0
professional,6,0,0,1,0,2
free,0,8,3,0,0,1
professional,2,1,2,1,0,2
professional,0,1,1,0,0,0
professional,0,0,0,0,0,1
free,1,3,32,0,0,2
professional,0,0,0,0,0,0
free,1,4.333333333,1.5,0,1,1.666666667
professional,1,0,1,0,1,0
professional,1,2.333333333,1.666666667,0,1.833333333,2.5
free,0,0,0,0,0,0
free,1,28.5,25,1,0,1
free,3,1,4,0,0,0
professional,3,3.5,0,0,0,2
free,1,0,5,0,7,0
professional,1,0,13.4,1.5,0,7
professional,0,0,0,0,0,0
free,1,1,1.5,0,2,2
free,1,0,0,0,0,0
professional,3,0,8,0,0,0
professional,0,0,0,0,0,0
professional,0,0,0,1,0,1
professional,1,0,0,0,0,0
professional,0,0,0,0,0,1
free,0,0,0,1,0,0
free,0,0,41,0,0,4
free,2,6,22,0,2,5
free,1,4,1,2,2,2
professional,0,0,0,1,0,0
free,0,0,0,1,0,0
professional,0,4,5,1,0,2
professional,1,1,4,0,0,0
free,0,0,5,0,0,0
free,1.5,3,3.142857143,0,1,3
professional,1,0,0,0,1.6,1
professional,0,0,0,0,0,2
free,0,0,0,0,0,0
professional,0,0,0,2,0,0
professional,1.857142857,1,1.666666667,1.5,1,4.333333333
professional,0,0,0,0,0,1
professional,3,12.5,0,0,0,0
professional,1,4,5,1,0,2
professional,5,3,10.25,1,0,2
free,1,0,2,0,0,0
professional,0,0,0,0,0,0
free,0,6,17.5,0,2.5,1.5
professional,0,0,9,0,0,1
professional,0,0,6,0,0,3
professional,0,5,12,0,0,0
free,1,0,1.666666667,0,0,2
free,0,0,3,0,0,0
professional,0,0,0,0,0,1.666666667
free,0,0,0,0,0,0
professional,0,0,0,0,0,0
professional,0,0,0,1,0,0
free,0,0,0,1,0,0
professional,2,2.666666667,4.666666667,1,1,1.5
free,2,0,0,0,0,2
professional,0,0,0,1,0,0
free,1,0,0,0,0,0
free,0,2,0,0,0,0
free,0,0,5.833333333,0,0,0
professional,12,8,2,0,3,1.5
professional,1,16,1,0,1,0
professional,1.333333333,1.333333333,2.5,1,0,4
free,0,0,0,0,0,0
free,1.333333333,1,2.75,0,0,0
free,4,8,0,0,1,6.6
professional,0,4,1.25,0,4,0
free,0,0,0,0,0,2
free,1,3,14,1,0,3.5
professional,0,4,4,0,0,1
professional,0,2,0,0,0,3
free,1.75,3.285714286,3.555555556,0,1.5,2.142857143
free,1,0,1,1,0,0
professional,0,0,0,0,0,2
professional,1.25,1.454545455,3.25,1,1,0
free,6,0,0,0,0,0
professional,0,9,6.25,2,0,0
free,2,1.333333333,3.5,0,0,0
professional,0,0,2,0,0,0
professional,0,0,0,0,0,1
free,1,2,4,0,0,0
professional,2.75,5,6.25,1,0,2
professional,1,26,8,7.5,3,10
professional,0,7,0,0,0,0
free,1,1.428571429,1.666666667,1,0,1
professional,1.5,2,5.333333333,2,1,2
free,1,0,13,1,0,0
professional,7,0,12,1,0,0
professional,0,0,1,0,0,0
free,3,0,2,0,0,0
professional,0,0,2,0,0,0
professional,0,0,2,0,0,2
free,0,19,175,0,0,6
free,1,1,0,0,0,2.5
free,0,0,0,1,0,0
professional,0,0,22,0,0,0
free,1,0,4,0,3.833333333,0
free,1,0,0,1,0,0
free,0,0,0,0,0,0
professional,0,0,0,0,0,0
professional,1,4.6,0,2,0,2
free,1.5,4.5,12.66666667,1,0,1.5
free,1.333333333,1,0,0,0,2.166666667
free,3,0,0,0,0,0
professional,1,1.5,6.6,1.5,11,0
professional,0,0,0,1,0,0
free,1,0,0,0,0,0
free,0,0,1,0,2,0
free,1.25,2.7,5.8,1,2,2
professional,0,0,1,0,0,0
free,1.333333333,1,1.428571429,0,0,0
free,0,7,0,0,0,0
free,0,0,0,0,0,0
professional,0,0,0,1,0,0
free,1,0,1,1,0,1
free,0,0,0,0,0,0
free,1,1,2,1,0,0
professional,0,0,0,0,0,0
professional,0,1,0,1,0,2
professional,1,0,7.333333333,0,0,0
free,2,0,0,0,0,0
professional,0,4,0,0,0,2
professional,1.25,6.5,8.571428571,1,0,9
professional,2,0,10,0,0,0
free,1,0,0,0,0,0
professional,1,1.5,1.727272727,0,1,0
professional,0,0,0,0,0,2
professional,2,1.5,5,1,0,2.333333333
professional,1,2,1,1,0,16.5
professional,0,0,0,0,0,1
professional,0,0,1,0,0,0
professional,1,0,2,1,10,0
free,2,1,0,1,0,0
free,1,0,16,0,0,1
professional,0,1,1,0,0,0
free,1.25,0,0,0,0,0
professional,4,3,6,0,0,7
professional,0,0,0,0,0,0
professional,0,1,95,0,0,0
free,1,0,0,0,0,0
professional,0,0,0,0,0,1
free,0,0,0,0,0,0
free,2,0,0,0,0,0
professional,0,1,3.666666667,0,1,3
professional,0,3,3,0,0,0
free,0,1,1,0,0,4
professional,4,5,7,0,0,1
free,1,0,0,2,0,0
professional,0,5,1,2,0,1
free,1,0,0,0,0,3
professional,1.2,5.636363636,3.647058824,1,4,1.5
free,0,0,0,0,0,2
professional,0,2,3,0,0,0
professional,1,0,0,0,0,0
free,0,1,1,1,0,0
professional,0,8,4,0,0,3
free,0,0,0,1,0,0
professional,0,0,0,0,0,1
professional,0,0,36,0,0,1
professional,1,0,1,0,1,0
professional,2.5,7.25,0,0,0,1.5
professional,0,4.666666667,1,0,13,1
professional,0,0,3,0,0,1
professional,0,0,0,0,1,0
professional,0,0,10.33333333,0,0,0
professional,1,0,0,0,0,0
professional,1,4.5,4,1,2,1.5
free,0,1,0,1,0,5
free,3,3,10,1.6,0,8.5
professional,2,0,0,0,0,0
professional,0,0,3,1,0,2
professional,0,3,15,0,1,0
free,1,0,1,0,0,1
free,1,7,1,0,2,0
professional,0,0,1,0,0,0
professional,0,1,5,0,1,0
professional,0,0,0,1,0,0
free,0,1,8,1,0,0
free,1,1,3,0,0,2
free,2,2,4,1.5,0,1
free,0,0,0,0,0,0
professional,3.5,3,8.333333333,2,0,2.4
professional,4,15,7,0,1,0
free,0,0,0,0,0,0
free,1,0,3,0,0,0
free,1,0,0,0,0,0
professional,2,2,4.833333333,1,2,1.666666667
professional,0,0,2,0,0,1
professional,4,3,4,0,0,0
free,0,2.8,10.42857143,0,0,0
free,4,8,3,0,0,0
professional,0,1,0,0,0,1
professional,0,0,23,1,14,5
free,0,0,0,1,0,0
professional,1,0,3.4,1.333333333,0,3
professional,0,1,21,0,0,1.666666667
professional,0,0,0,0,0,0
professional,2,10,11,0,0,0
free,1,0,2,0,0,0
professional,0,2,0,0,0,1
professional,1.090909091,1,2.055555556,0,2.666666667,1.5
free,0,0,0,0,0,0
free,0,0,0,0,0,0
professional,4,0,13,0,0,6
professional,0,0,8,0,0,0
free,0,6,0,0,4.666666667,0
free,1.4,4.166666667,2.642857143,1,0,2
professional,1,0,8,0,0,0
professional,0,2,2,0,0,0
professional,3.5,12,5.833333333,0,1.666666667,1
professional,0,1,3,0,1,0
free,0,1.5,3,2,0,3
free,1.5,3,8,0,0,1.5
free,0,0,0,1,0,0
professional,1,1,14,0,1,5
professional,0,11,1,0,0,0
free,4,0,0,0,0,0
free,2,1,2,1,0,1
professional,0,4,3,0,0,0
professional,0,0,0,1,0,1
free,0,0,3,0,0,0
free,0,0,0,2,0,0
free,1,1,37,0,0,0
professional,0,0,0,1,0,0
professional,0,0,2,0,0,0
professional,0,0,0,0,0,0
professional,0,1,1,0,0,0
free,0,0,0,1,0,0
professional,1.181818182,3.25,1,1,0,2
professional,0,4,17,0,10,0
professional,0,1,16,0,0,0
free,0,5,8,0,0,8
free,0,0,0,0,0,0
free,0,0,0,0,0,0
professional,0,0,0,0,0,2.25
free,0,0,0,1,0,1.5
professional,4,0,4.5,2,0,0
free,0,1.285714286,3.5,0,2,0
professional,0,1,5,0,0,0
free,0,2,30,0,0,3
professional,0,2,1,0,1,1
free,0,0,0,0,0,0
professional,0,0,0,0,0,0
professional,0,2.8,3.714285714,0,3,0
professional,0,0,3,0,0,5
free,1,3.333333333,3.5,0,1,0
free,1,1.9,1.461538462,0,1,1.75
free,3.6,1,13.8,0,0,2.5
professional,2,3,8,0,1,0
professional,0,0,0,0,0,0
professional,0,0,0,1,0,0
professional,1,2.307692308,2.8,1,0,2
professional,1,1,4.2,2,2,1
professional,3,0,1,0,0,3
free,0,7,2,0,1.5,0
free,0,0,0,0,0,0
free,0,0,1,2,1,0
free,1,1,31,0,0,1
professional,1,1,2.8,1,1,1
professional,0,0,0,1,0,0
free,1,0,0,0,0,1
professional,2,1,1.6,0,0,0
professional,1,0,2.25,0,12.16666667,3
professional,1,0,0,0,0,0
free,0,0,3,0,0,0
professional,0,0,0,1,0,0
professional,0,0,0,0,0,3
free,0,0,0,0,0,0
professional,2,0,0,0,0,3.5
professional,0,0,0,0,0,2
free,0,3,0,0,0,0
professional,1,0,14,0,2,0
free,0,0,0,0,0,0
free,1,3,2.375,0,1,5.166666667
professional,2,15.5,8,1,0,3.5
professional,0,1,0,0,0,2.5
professional,2.6,26.2,7.75,1,0,0
professional,0,0,0,1,0,0
free,1,0,7,0,1,1
professional,0,0,2,0,1,5
free,0,0,0,0,0,0
free,1,0,3.642857143,0,1,1.5
professional,0,0,14,1,0,0
professional,0,0,8,0,6,0
professional,2,5,3,1,1.5,0
professional,1,3,1.666666667,0,10,3
free,1.25,6.5,7,0,3,2
professional,0,0,0,1,0,0
free,0,0,5,0,0,0
free,0,0,2,0,9,0
professional,1,0,0,0,0,1
professional,0,0,0,0,0,0
free,0,2,0,0,0,0
professional,2.5,0,2.333333333,1,0,4
free,0,0,0,1,0,0
professional,1,0,0,0,0,1
free,0,0,0,0,0,0
professional,0,0,0,1.5,0,2
free,1,0,0,0,0,0
free,0,0,0,0,0,0
professional,0,1,1.8,0,2.684210526,0
free,1,2.5,7,0,0,0
professional,0,0,0,0,0,0
free,2,0,3,1,0,1
free,2,7.5,2,0,0,4
professional,0,2,0,0,0,0
free,0,0,6,0,0,1
professional,0,0,11,0,0,0
free,0,0,0,0,0,0
free,0,0,0,0,0,0
free,0,0,0,1,0,0
professional,2,1.25,5.266666667,1,0,0
free,1,1,4,0,0,0
professional,0,0,1,0,0,0
professional,0,0,3.576923077,0,0,1.8
professional,0,0,11,0,0,0
professional,0,9,0,0,0,0
professional,2,1,2,0,0,0
free,0,3,0,1,0,3
professional,1.214285714,3,2.481481481,1.125,2,12.33333333
free,1,0,22,1,0,1
professional,1.25,0,2,1,0,1.5
free,0,0,0,1,0,0
free,0,0,0,1,0,0
professional,1,0,0,1,0,3.666666667
free,0,1,11,0,0,0
professional,0,0,2,0,0,0
free,0,0,6.4,0,0,0